Análise - Previdência Social
…
# A mable: 1 x 5
         HoltM       HW_Add      HW_Mult                     ARIMA
       <model>      <model>      <model>                   <model>
1 <ETS(M,A,N)> <ETS(A,A,A)> <ETS(M,A,M)> <ARIMA(0,1,1)(2,0,0)[12]>
# ℹ 1 more variable: NNETAR <model>

# A fable: 60 x 4 [1M]
# Key:     .model [5]
   .model     date
   <chr>     <mth>
 1 HoltM  2025 jan
 2 HoltM  2025 fev
 3 HoltM  2025 mar
 4 HoltM  2025 abr
 5 HoltM  2025 mai
 6 HoltM  2025 jun
 7 HoltM  2025 jul
 8 HoltM  2025 ago
 9 HoltM  2025 set
10 HoltM  2025 out
# ℹ 50 more rows
# ℹ 2 more variables: Fluxo_De_Caixa <dist>, .mean <dbl>
…
